include "map.inc"
include "bigbob.inc"

# size of the whole simulation
size [15 15]

window
( 
  size [ 745 448 ] 
  scale 41
)

# load an environment bitmap
floorplan
( 
  bitmap "bitmap/NameMap.png"
  size [54.000 58.700 3]
)

bigbob
(
      name "bob1"
      pose [-5 -6 0 45]
      color "green"
)
